…
``` r
data %>%
  unnest_tokens(word, text) # Transform the non-tidy text data to tidy text data
```

    ## # A tibble: 171,586 x 3
    ##                 book chapter     word
    ##                <chr>   <int>    <chr>
    ## 1  Half Blood Prince       1       it
    ## 2  Half Blood Prince       1      was
    ## 3  Half Blood Prince       1  nearing
    ## 4  Half Blood Prince       1 midnight
    ## 5  Half Blood Prince       1      and
    ## 6  Half Blood Prince       1      the
    ## 7  Half Blood Prince       1    prime
    ## 8  Half Blood Prince       1 minister
    ## 9  Half Blood Prince       1      was
    ## 10 Half Blood Prince       1  sitting
    ## # ... with 171,576 more rows
…
for (i in seq_along(titles)) { # create a tibble for each book
  data <- tibble(text = books[[i]]) %>% # add text
    mutate(book = titles[i]) %>% # define a new column for book name
    mutate(chapter = seq_along(books[[i]])) %>% # define a new column for chapter number
    group_by(book) %>% # group by book title
    unnest_tokens(word, text) %>%  # transform the non-tidy text data to tidy text data
    ungroup()
  
  saga <- rbind(saga, data) # bind rows of tibble of each book
}

saga
```

    ## # A tibble: 1,090,690 x 3
    ##                   book chapter    word
    ## *                <chr>   <int>   <chr>
    ## 1  Philosopher's Stone       1     the
    ## 2  Philosopher's Stone       1     boy
    ## 3  Philosopher's Stone       1     who
    ## 4  Philosopher's Stone       1   lived
    ## 5  Philosopher's Stone       1      mr
    ## 6  Philosopher's Stone       1     and
    ## 7  Philosopher's Stone       1     mrs
    ## 8  Philosopher's Stone       1 dursley
    ## 9  Philosopher's Stone       1      of
    ## 10 Philosopher's Stone       1  number
    ## # ... with 1,090,680 more rows
…
