…
``` r
#now that our beermeta's X1 is labeled correctly and corresponds with the actual number of the document, we can join the two datasets using X1 

beer.final <- beermeta %>%
  left_join(theta.clean, by = "X1")
```

Awesome, now we have a data frame with all our variables of interest, based on the documents that STM used for the text processing, notice that we started with 8459, and now we have 8285. So what can we do now exactly?

We know *who* tweeted *what* and *when* (on what day). From this we can do the following: *find the most tweeted topic by beer company *find the most favorited topic

    ## # A tibble: 152 x 3
    ##        screenName topic     n
    ##             <chr> <int> <int>
    ##  1 BlueMoonBrewCo    37   535
    ##  2 BlueMoonBrewCo    45   525
    ##  3     GuinnessUS    14   364
    ##  4 BlueMoonBrewCo    19   335
    ##  5     GuinnessUS    44   317
    ##  6       budlight    30   309
    ##  7       budlight    22   304
    ##  8       DosEquis    18   292
    ##  9       DosEquis    25   253
    ## 10 BlueMoonBrewCo    36   252
    ## # ... with 142 more rows
…
    ## # A tibble: 152 x 3
    ##        screenName topic favorites
    ##             <chr> <int>     <int>
    ##  1       DosEquis    18     12349
    ##  2       DosEquis    25      9003
    ##  3     GuinnessUS    44      6672
    ##  4       DosEquis    46      3767
    ##  5       DosEquis    34      3665
    ##  6       DosEquis    15      3503
    ##  7     GuinnessUS    14      2937
    ##  8 BlueMoonBrewCo    39      2699
    ##  9       DosEquis    13      2651
    ## 10       DosEquis    12      2593
    ## # ... with 142 more rows
…
