Text Analyis
…
Start with some text based data.

Clean data and prepare it for analysis

Ask questions about the data

Answer these questions with the data using tables and graphics

Each group member must have their own unique question that they code the answer for.

Cleaning the data

book

## # A tibble: 409,338 x 4
## # Groups:   word [23,795]
##    chapter     word              title series
##      <int>    <chr>              <chr>  <int>
##  1       1  violets chamber_of_secrets      1
##  2       1  allowed chamber_of_secrets      1
##  3       1     pale chamber_of_secrets      1
##  4       1     feel chamber_of_secrets      1
##  5       1     feel chamber_of_secrets      1
##  6       1  glasses chamber_of_secrets      1
##  7       1   failed chamber_of_secrets      1
##  8       1  morning chamber_of_secrets      1
##  9       1 enormous chamber_of_secrets      1
## 10       1 enormous chamber_of_secrets      1
## # ... with 409,328 more rows
…
freq_by_rank

## # A tibble: 5,978 x 5
##     word     n total  rank       freq
##    <chr> <int> <int> <int>      <dbl>
##  1   the  3629 77875     1 0.04660032
##  2   and  1923 77875     2 0.02469342
##  3    to  1861 77875     3 0.02389727
##  4     a  1691 77875     4 0.02171429
##  5    he  1528 77875     5 0.01962119
##  6    of  1267 77875     6 0.01626966
##  7 harry  1213 77875     7 0.01557624
##  8   was  1186 77875     8 0.01522953
##  9    it  1027 77875     9 0.01318780
## 10    in   968 77875    10 0.01243018
## # ... with 5,968 more rows

Could you divide the text by bigrams rather than words?

bigram_counts

## # A tibble: 7,695 x 3
##        word1      word2     n
##        <chr>      <chr> <int>
##  1     uncle     vernon    97
##  2 professor mcgonagall    90
##  3      aunt    petunia    52
##  4     harry     potter    26
##  5     harry     looked    22
##  6 professor dumbledore    20
##  7 professor   quirrell    18
##  8  hermione    granger    16
##  9    privet      drive    16
## 10 professor   flitwick    15
## # ... with 7,685 more rows

bigram_united

## # A tibble: 9,487 x 2
##     line           bigram
##  * <int>            <chr>
##  1     1     privet drive
##  2     1 perfectly normal
##  3     1      firm called
##  4     1 called grunnings
##  5     1     usual amount
##  6     1     time craning
##  7     1    garden fences
##  8     1    fences spying
##  9     1       son called
## 10     1    called dudley
## # ... with 9,477 more rows

What is the tf_idf of the bigram_united we create in last question?

bigram_tf_idf

## # A tibble: 8,652 x 6
##     line           bigram     n         tf       idf     tf_idf
##    <int>            <chr> <int>      <dbl>     <dbl>      <dbl>
##  1     3     uncle vernon    46 0.08778626 0.8873032 0.07789303
##  2     2     aunt petunia    22 0.05597964 0.7537718 0.04219588
##  3     3   smelting stick     7 0.01335878 2.8332133 0.03784827
##  4     2     uncle vernon    16 0.04071247 0.8873032 0.03612430
##  5     4     uncle vernon    17 0.03617021 0.8873032 0.03209395
##  6    11     marcus flint     5 0.01072961 2.8332133 0.03039928
##  7    13 sorcerer's stone     8 0.02094241 1.4469190 0.03030197
##  8     1   shooting stars     5 0.01014199 2.8332133 0.02873442
##  9     3     aunt petunia    19 0.03625954 0.7537718 0.02733142
## 10     3   uncle vernon's     7 0.01335878 1.7346011 0.02317215
## # ... with 8,642 more rows

Can you show the word after the negative word?

not_words

## # A tibble: 21 x 3
##       word2 score     n
##       <chr> <int> <int>
##  1      bad    -3     1
##  2   bother    -2     1
##  3    brave     2     1
##  4 careless    -2     1
##  5   daring     2     1
##  6     easy     1     1
##  7  forgive     1     1
##  8    funny     4     1
##  9     hurt    -2     1
## 10      ill    -2     1
## # ... with 11 more rows

negated_words

## # A tibble: 49 x 4
##    word1     word2 score     n
##    <chr>     <chr> <int> <int>
##  1    no      good     3     6
##  2    no        no    -1     6
##  3    no     doubt    -1     4
##  4    no mistaking    -2     3
##  5 never    forget    -1     2
##  6 never    betray    -3     1
##  7 never       die    -3     1
##  8 never   forgive     1     1
##  9 never     leave    -1     1
## 10 never      lost    -3     1
## # ... with 39 more rows
…
word_cor

## # A tibble: 295,392 x 3
##       item1    item2 correlation
##       <chr>    <chr>       <dbl>
##  1   vernon    uncle   0.9974725
##  2    uncle   vernon   0.9974725
##  3  petunia   dudley   0.9954576
##  4   dudley  petunia   0.9954576
##  5      yeh      ter   0.9911646
##  6      ter      yeh   0.9911646
##  7 cupboard  petunia   0.9898987
##  8  petunia cupboard   0.9898987
##  9    ronan  unicorn   0.9824679
## 10  unicorn    ronan   0.9824679
## # ... with 295,382 more rows
…
