…
  series <- rbind(series, temp)
}
```

1.3 Keep books in order of publication.
---------------------------------------

``` r
series$book <- factor(series$book, levels = rev(hp_books))
series
```

    ## # A tibble: 1,089,386 x 2
    ##                                        book    word
    ##  *                                   <fctr>   <chr>
    ##  1 Harry Potter and the Philosopher's Stone     the
    ##  2 Harry Potter and the Philosopher's Stone     boy
    ##  3 Harry Potter and the Philosopher's Stone     who
    ##  4 Harry Potter and the Philosopher's Stone   lived
    ##  5 Harry Potter and the Philosopher's Stone      mr
    ##  6 Harry Potter and the Philosopher's Stone     and
    ##  7 Harry Potter and the Philosopher's Stone     mrs
    ##  8 Harry Potter and the Philosopher's Stone dursley
    ##  9 Harry Potter and the Philosopher's Stone      of
    ## 10 Harry Potter and the Philosopher's Stone  number
    ## # ... with 1,089,376 more rows
…
3.4 Analyze word counts that contribute to each sentiment. Can we view this visually?
-------------------------------------------------------------------------------------

``` r
counting_bing_word <- series %>%
  inner_join(get_sentiments("bing")) %>%
  count(word, sentiment, sort = TRUE) %>%
  ungroup()

counting_bing_word
```

    ## # A tibble: 3,313 x 3
    ##      word sentiment     n
    ##     <chr>     <chr> <int>
    ##  1   like  positive  2416
    ##  2   well  positive  1969
    ##  3  right  positive  1643
    ##  4   good  positive  1065
    ##  5   dark  negative  1034
    ##  6  great  positive   877
    ##  7  death  negative   757
    ##  8  magic  positive   606
    ##  9 better  positive   533
    ## 10 enough  positive   509
    ## # ... with 3,303 more rows
…
