…
``` r
# Most common positive and negative words
bing_word_counts <- data_tidy %>%
  inner_join(get_sentiments("bing")) %>%
  count(word,sentiment,sort = TRUE) %>%
  ungroup()
```

    ## Joining, by = "word"

``` r
bing_word_counts
```

    ## # A tibble: 1,070 x 3
    ##           word sentiment     n
    ##          <chr>     <chr> <int>
    ##  1       trump  positive   733
    ##  2        love  positive   405
    ##  3     amazing  positive   317
    ##  4    favorite  positive   278
    ##  5       skill  positive   263
    ##  6        hack  negative   257
    ##  7       happy  positive   216
    ##  8 inspiration  positive   192
    ##  9        fall  negative   190
    ## 10     excited  positive   182
    ## # ... with 1,060 more rows
…
as_tibble(word_by_time)
```

    ## # A tibble: 610 x 5
    ##    time_floor   word count time_total word_total
    ##        <date>  <chr> <int>      <int>      <int>
    ##  1 2009-07-01  check     1        256        433
    ##  2 2009-07-01    day     2        256        540
    ##  3 2009-07-01 ivanka     1        256        786
    ##  4 2009-07-01  trump     7        256        733
    ##  5 2009-08-01    day     2        275        540
    ##  6 2009-08-01   love     3        275        405
    ##  7 2009-08-01  trump     3        275        733
    ##  8 2009-09-01  check     3        439        433
    ##  9 2009-09-01 ivanka     1        439        786
    ## 10 2009-09-01   love     2        439        405
    ## # ... with 600 more rows
…
